id_registro,user,password,email,pasadmin,rol
1,administrador,,admin@utpl,1234,1
2,vamoncayo,1234,vamoncayo@gmail.com,0,3
3,fiazanza,1234,fiazanza@hotmail.es,0,3
4,iacastro,1234,iacastro@yahoo.com,0,3
5,fiazanza1,1234,fiazanza1@gmail.com,0,3
6,larios,1234,larios@gmail.com,0,3
7,jdjima,1234,jdjima@hotmail.com,0,3
8,dschuquimarca,1234,cbmax6@gmail.com,0,3
9,avbravo,1234,avbravo@yahoo.com,0,3
10,bfriofrio,1234,sinan111@hotmail.com,0,3
11,geaviles,1234,geaviles@gmail.com,0,3
12,prnaranjo,1234,prnaranjo@net,0,3
13,eatenorio,1234,eatenorio@hotmail.com,0,3
14,mvmirian,1234,mvmirian@hotmail.com,0,3
15,plmarietha,1234,plmarietha@hotmail.com,0,3
16,citymaxis,1234,loja@chefarina.com,0,3
17,evcristian,1234,evcristian@hotmail.com,0,3
18,tcemiliano,1234,tcemiliano@hotmail.com,0,3
19,lggallardo,1234,lggallardo@hotmail.com,0,3
20,bvcarlos,1234,chifa_beijing@outlook.es,0,3
21,aormaritza,1234,aormaritza@hotmail.com,0,3
