id_restaurane,nombre,representante,direccion,id_ruc,id_categoria
1,200 MILLAS,VISMAR AUGUSTO MONCAYO VACA,JUAN J PENA 07-41 Y 10 DE AGOSTO,1101022505001    ,2
2,PARRILLADAS EL FOGON,FELICIANO ISRRAEL AZANZA ORDONIEZ,AV 8 DE DICIEMBRE Y JUAN JOSE FLORES,1100068897001    ,2
3,PARRILLADAS URUGUAYAS,IRMA ASTREJILDA CASTRO AGUIRRE,JUAN DE SALINAS Y UNIVERSITARIA,1100569753001    ,2
4,SANDY,FELICIANO ISRAEL AZANZA ORDONIEZ,AV. 8 DE DICIEMBRE Y JUAN JOSE FLORES,1100068897001    ,2
5,SANDY CENTRO,LEOVANI PATRICIO RIOS HIDALGO,MERCADILLO Y BOLIVAR,1102654793001    ,2
6,LA BRASA ,JOSE DAVID JIMA JIMA,ROCAFUERTE 1317 Y AV IBEROAMERICA,1101608440001    ,3
7,FAISAN  EL SUC.,DARWIN SEGUNDO CHUQUIMARCA B,TERMINAL TERRESTRE,1102551247001    ,3
8,FAISAN PRINCIPAL,ALBA VIOLETA BRAVO CHUQUIMARCA,10 DE AGOSTO Y LAURO GUERRERO,1100546470001    ,3
9,PAVI POLLO N 2,BYRON FERNANDO RIOFRIO CORONEL,MERCADILLO Y SUCRE ESQUINA.,1101713194001    ,3
10,PERLA DEL PACIFICO,GRACIELA ELVIRA AVILES RIERA,J.A EGUIGUREN  1625 Y 18 NOVIEMBRE,1102056056001    ,3
11,EL RECREO ,PIEDAD ROSARIO NARANJO CABRERA,SALVADOR B. CELI Y CHONE,1101853594001    ,3
12,RICKY,ENRIQUE ANTONIO TENORIO ORTIZ,MERCADILLO Y JOSE MARIA PENIA ESQ.,1102013727001    ,2
13,A LO MERO MERO,MOROCHO VILLA MIRIAN VANESA,SUCRE Y COLON,1104240914001    ,4
14,RIZZOTO,POMA LOJA MARIETHA ISABEL,MIGUEL RIOFRIO Y BOLIVAR,1101744322001    ,3
15,CH FARINA,CUEVA SONO CLEMENCIA ELIZABETH,AV. ORILLAS DEL ZAMORA Y GUAYAQUIL,1790527085001    ,2
16,CARBONERO SUC. EL,ESPINOSA VERA CRISTIAN FERNANDO,AV. 24 DE MAYO Y MIGUEL RIOFRIO,1103754659001    ,3
17,FOGON GRILL,TORRES CASTRO EMILIANO ANTONIO,TORRES CASTRO EMILIANO ANTONIO,1102930896001    ,2
18,MAMA LOLA,LOJAN GALLARDO DORASTENIA,"AV, SALVADOR BUSTAMENTE CELI Y SANTA ROSA",1102061817001    ,2
19,BEIJING SUC.,BENTACOURT VALDIVIESO CARLOS ANDRES,AV. PIO JARAMILLO Y QUENEDY,1104449093001    ,3
20,FOGON GRILL CENTRO EL,AZANZA ORTIZ MARITZA ELIZABETH,OLMEDO Y JOSE ANTONIO EGUIGUREN,1103669345001    ,2
